{
  "project_info": {
    "project_number": "197245074420",
    "project_id": "smart-doorbell-576",
    "storage_bucket": "smart-doorbell-576.appspot.com"
  },
  "client": [
    {
      "client_info": {
        "mobilesdk_app_id": "1:197245074420:android:9769d4c7e002f6f5b217a1",
        "android_client_info": {
          "package_name": "ua.com.user576.smartdoorbell"
        }
      },
      "oauth_client": [
        {
          "client_id": "197245074420-uv553aldef6rr7eftdtejtdbodtgh2m9.apps.googleusercontent.com",
          "client_type": 3
        }
      ],
      "api_key": [
        {
          "current_key": "AIzaSyAJ6b0M4fJ5cpu8WrcBZdggSzOwOgWs-Ak"
        }
      ],
      "services": {
        "appinvite_service": {
          "other_platform_oauth_client": [
            {
              "client_id": "197245074420-uv553aldef6rr7eftdtejtdbodtgh2m9.apps.googleusercontent.com",
              "client_type": 3
            }
          ]
        }
      }
    }
  ],
  "configuration_version": "1"
}